{
  "verses": [
    {
      "id": 5496,
      "verse_number": 1,
      "verse_key": "74:1",
      "hizb_number": 58,
      "rub_el_hizb_number": 230,
      "ruku_number": 512,
      "manzil_number": 7,
      "sajdah_number": null,
      "text_uthmani": " يَـٰٓأَيُّهَا ٱلْمُدَّثِّرُ",
      "page_number": 575,
      "juz_number": 29,
      "words": [
        {
          "id": 631,
          "position": 1,
          "audio_url": "wbw/074_001_001.mp3",
          "char_type_name": "word",
          "code_v1": "ﮬ",
          "page_number": 575,
          "line_number": 10,
          "text": "ﮬ",
          "translation": {
            "text": "O you",
            "language_name": "english"
          },
          "transliteration": {
            "text": "yāayyuhā",
            "language_name": "english"
          }
        },
        {
          "id": 632,
          "position": 2,
          "audio_url": "wbw/074_001_002.mp3",
          "char_type_name": "word",
          "code_v1": "ﮭ",
          "page_number": 575,
          "line_number": 10,
          "text": "ﮭ",
          "translation": {
            "text": "who covers himself",
            "language_name": "english"
          },
          "transliteration": {
            "text": "l-mudathiru",
            "language_name": "english"
          }
        },
        {
          "id": 633,
          "position": 3,
          "audio_url": null,
          "char_type_name": "end",
          "code_v1": "ﮮ",
          "page_number": 575,
          "line_number": 10,
          "text": "ﮮ",
          "translation": {
            "text": "(1)",
            "language_name": "english"
          },
          "transliteration": {
            "text": null,
            "language_name": "english"
          }
        }
      ],
      "translations": [
        {
          "id": 95251,
          "resource_id": 19,
          "text": "O thou enveloped in thy cloak,"
        },
        {
          "id": 369783,
          "resource_id": 79,
          "text": "О, завернувшийся [[Когда Пророк Мухаммад находился в пещере Хира, недалеко от Мекки, к нему впервые явился ангел Джибриль, который принес ему откровение от Аллаха Всевышнего. Увидев ангела, Пророк очень сильно испугался и когда пришел домой, попросил закутать его и облить холодной водой.]] (в одежды) (Пророк)!"
        },
        {
          "id": 252082,
          "resource_id": 45,
          "text": "О завернувшийся!"
        },
        {
          "id": 144404,
          "resource_id": 27,
          "text": "O du Zugedeckter,"
        }
      ]
    },
    {
      "id": 5497,
      "verse_number": 2,
      "verse_key": "74:2",
      "hizb_number": 58,
      "rub_el_hizb_number": 230,
      "ruku_number": 512,
      "manzil_number": 7,
      "sajdah_number": null,
      "text_uthmani": "قُمْ فَأَنذِرْ",
      "page_number": 575,
      "juz_number": 29,
      "words": [
        {
          "id": 1613,
          "position": 1,
          "audio_url": "wbw/074_002_001.mp3",
          "char_type_name": "word",
          "code_v1": "ﮯ",
          "page_number": 575,
          "line_number": 10,
          "text": "ﮯ",
          "translation": {
            "text": "Stand up",
            "language_name": "english"
          },
          "transliteration": {
            "text": "qum",
            "language_name": "english"
          }
        },
        {
          "id": 1614,
          "position": 2,
          "audio_url": "wbw/074_002_002.mp3",
          "char_type_name": "word",
          "code_v1": "ﮰ",
          "page_number": 575,
          "line_number": 10,
          "text": "ﮰ",
          "translation": {
            "text": "and warn",
            "language_name": "english"
          },
          "transliteration": {
            "text": "fa-andhir",
            "language_name": "english"
          }
        },
        {
          "id": 1615,
          "position": 3,
          "audio_url": null,
          "char_type_name": "end",
          "code_v1": "ﮱ",
          "page_number": 575,
          "line_number": 10,
          "text": "ﮱ",
          "translation": {
            "text": "(2)",
            "language_name": "english"
          },
          "transliteration": {
            "text": null,
            "language_name": "english"
          }
        }
      ],
      "translations": [
        {
          "id": 95263,
          "resource_id": 19,
          "text": "Arise and warn!"
        },
        {
          "id": 369784,
          "resource_id": 79,
          "text": "Встань и увещевай (людей) (о том, что их постигнет наказание в великий день, если они не уверуют в Аллаха и в то, с чем Он послал Своего посланника)!"
        },
        {
          "id": 255597,
          "resource_id": 45,
          "text": "Встань и увещевай!"
        },
        {
          "id": 144413,
          "resource_id": 27,
          "text": "stehe auf und warne;"
        }
      ]
    },
    {
      "id": 5498,
      "verse_number": 3,
      "verse_key": "74:3",
      "hizb_number": 58,
      "rub_el_hizb_number": 230,
      "ruku_number": 512,
      "manzil_number": 7,
      "sajdah_number": null,
      "text_uthmani": "وَرَبَّكَ فَكَبِّرْ",
      "page_number": 575,
      "juz_number": 29,
      "words": [
        {
          "id": 2622,
          "position": 1,
          "audio_url": "wbw/074_003_001.mp3",
          "char_type_name": "word",
          "code_v1": "ﯓ",
          "page_number": 575,
          "line_number": 10,
          "text": "ﯓ",
          "translation": {
            "text": "And your Lord",
            "language_name": "english"
          },
          "transliteration": {
            "text": "warabbaka",
            "language_name": "english"
          }
        },
        {
          "id": 2623,
          "position": 2,
          "audio_url": "wbw/074_003_002.mp3",
          "char_type_name": "word",
          "code_v1": "ﯔ",
          "page_number": 575,
          "line_number": 10,
          "text": "ﯔ",
          "translation": {
            "text": "magnify",
            "language_name": "english"
          },
          "transliteration": {
            "text": "fakabbir",
            "language_name": "english"
          }
        },
        {
          "id": 2624,
          "position": 3,
          "audio_url": null,
          "char_type_name": "end",
          "code_v1": "ﯕ",
          "page_number": 575,
          "line_number": 10,
          "text": "ﯕ",
          "translation": {
            "text": "(3)",
            "language_name": "english"
          },
          "transliteration": {
            "text": null,
            "language_name": "english"
          }
        }
      ],
      "translations": [
        {
          "id": 95275,
          "resource_id": 19,
          "text": "Thy Lord magnify,"
        },
        {
          "id": 369785,
          "resource_id": 79,
          "text": "И Господа своего возвеличивай (признавая богом только Его и поклоняясь только Ему)!"
        },
        {
          "id": 252066,
          "resource_id": 45,
          "text": "Господа своего величай!"
        },
        {
          "id": 80064,
          "resource_id": 27,
          "text": "und deinen Herrn, Den preise als den Größten,"
        }
      ]
    },
    {
      "id": 5499,
      "verse_number": 4,
      "verse_key": "74:4",
      "hizb_number": 58,
      "rub_el_hizb_number": 230,
      "ruku_number": 512,
      "manzil_number": 7,
      "sajdah_number": null,
      "text_uthmani": "وَثِيَابَكَ فَطَهِّرْ",
      "page_number": 575,
      "juz_number": 29,
      "words": [
        {
          "id": 4045,
          "position": 1,
          "audio_url": "wbw/074_004_001.mp3",
          "char_type_name": "word",
          "code_v1": "ﯖ",
          "page_number": 575,
          "line_number": 10,
          "text": "ﯖ",
          "translation": {
            "text": "And your clothing",
            "language_name": "english"
          },
          "transliteration": {
            "text": "wathiyābaka",
            "language_name": "english"
          }
        },
        {
          "id": 4046,
          "position": 2,
          "audio_url": "wbw/074_004_002.mp3",
          "char_type_name": "word",
          "code_v1": "ﯗ",
          "page_number": 575,
          "line_number": 10,
          "text": "ﯗ",
          "translation": {
            "text": "purify",
            "language_name": "english"
          },
          "transliteration": {
            "text": "faṭahhir",
            "language_name": "english"
          }
        },
        {
          "id": 4047,
          "position": 3,
          "audio_url": null,
          "char_type_name": "end",
          "code_v1": "ﯘ",
          "page_number": 575,
          "line_number": 10,
          "text": "ﯘ",
          "translation": {
            "text": "(4)",
            "language_name": "english"
          },
          "transliteration": {
            "text": null,
            "language_name": "english"
          }
        }
      ],
      "translations": [
        {
          "id": 95285,
          "resource_id": 19,
          "text": "Thy raiment purify,"
        },
        {
          "id": 369786,
          "resource_id": 79,
          "text": "И свои одежды (от скверны) очищай!"
        },
        {
          "id": 255638,
          "resource_id": 45,
          "text": "Одежды свои очищай!"
        },
        {
          "id": 144421,
          "resource_id": 27,
          "text": "und deine Gewänder, die reinige,"
        }
      ]
    },
    {
      "id": 5500,
      "verse_number": 5,
      "verse_key": "74:5",
      "hizb_number": 58,
      "rub_el_hizb_number": 230,
      "ruku_number": 512,
      "manzil_number": 7,
      "sajdah_number": null,
      "text_uthmani": "وَٱلرُّجْزَ فَٱهْجُرْ",
      "page_number": 575,
      "juz_number": 29,
      "words": [
        {
          "id": 5331,
          "position": 1,
          "audio_url": "wbw/074_005_001.mp3",
          "char_type_name": "word",
          "code_v1": "ﯙ",
          "page_number": 575,
          "line_number": 11,
          "text": "ﯙ",
          "translation": {
            "text": "And uncleanliness",
            "language_name": "english"
          },
          "transliteration": {
            "text": "wal-ruj'za",
            "language_name": "english"
          }
        },
        {
          "id": 5332,
          "position": 2,
          "audio_url": "wbw/074_005_002.mp3",
          "char_type_name": "word",
          "code_v1": "ﯚ",
          "page_number": 575,
          "line_number": 11,
          "text": "ﯚ",
          "translation": {
            "text": "avoid",
            "language_name": "english"
          },
          "transliteration": {
            "text": "fa-uh'jur",
            "language_name": "english"
          }
        },
        {
          "id": 5333,
          "position": 3,
          "audio_url": null,
          "char_type_name": "end",
          "code_v1": "ﯛ",
          "page_number": 575,
          "line_number": 11,
          "text": "ﯛ",
          "translation": {
            "text": "(5)",
            "language_name": "english"
          },
          "transliteration": {
            "text": null,
            "language_name": "english"
          }
        }
      ],
      "translations": [
        {
          "id": 95297,
          "resource_id": 19,
          "text": "Pollution shun!"
        },
        {
          "id": 369787,
          "resource_id": 79,
          "text": "И скверны [идолопоклонства и грехов] сторонись!"
        },
        {
          "id": 255208,
          "resource_id": 45,
          "text": "Скверны (идолов) сторонись!"
        },
        {
          "id": 144436,
          "resource_id": 27,
          "text": "und die (Unreinheit des) Götzen(dienstes), die meide,"
        }
      ]
    },
    {
      "id": 5501,
      "verse_number": 6,
      "verse_key": "74:6",
      "hizb_number": 58,
      "rub_el_hizb_number": 230,
      "ruku_number": 512,
      "manzil_number": 7,
      "sajdah_number": null,
      "text_uthmani": "وَلَا تَمْنُن تَسْتَكْثِرُ",
      "page_number": 575,
      "juz_number": 29,
      "words": [
        {
          "id": 6546,
          "position": 1,
          "audio_url": "wbw/074_006_001.mp3",
          "char_type_name": "word",
          "code_v1": "ﯜ",
          "page_number": 575,
          "line_number": 11,
          "text": "ﯜ",
          "translation": {
            "text": "And (do) not",
            "language_name": "english"
          },
          "transliteration": {
            "text": "walā",
            "language_name": "english"
          }
        },
        {
          "id": 6547,
          "position": 2,
          "audio_url": "wbw/074_006_002.mp3",
          "char_type_name": "word",
          "code_v1": "ﯝ",
          "page_number": 575,
          "line_number": 11,
          "text": "ﯝ",
          "translation": {
            "text": "confer favor",
            "language_name": "english"
          },
          "transliteration": {
            "text": "tamnun",
            "language_name": "english"
          }
        },
        {
          "id": 6548,
          "position": 3,
          "audio_url": "wbw/074_006_003.mp3",
          "char_type_name": "word",
          "code_v1": "ﯞ",
          "page_number": 575,
          "line_number": 11,
          "text": "ﯞ",
          "translation": {
            "text": "(to) acquire more",
            "language_name": "english"
          },
          "transliteration": {
            "text": "tastakthiru",
            "language_name": "english"
          }
        },
        {
          "id": 6549,
          "position": 4,
          "audio_url": null,
          "char_type_name": "end",
          "code_v1": "ﯟ",
          "page_number": 575,
          "line_number": 11,
          "text": "ﯟ",
          "translation": {
            "text": "(6)",
            "language_name": "english"
          },
          "transliteration": {
            "text": null,
            "language_name": "english"
          }
        }
      ],
      "translations": [
        {
          "id": 95306,
          "resource_id": 19,
          "text": "And show not favour, seeking wordly gain!"
        },
        {
          "id": 369788,
          "resource_id": 79,
          "text": "И не оказывай милость (кому-либо), стремясь [надеясь] (получить от него) большее!"
        },
        {
          "id": 255631,
          "resource_id": 45,
          "text": "Не оказывай милости, чтобы получить большее!"
        },
        {
          "id": 144438,
          "resource_id": 27,
          "text": "und halte nicht (deinen Verdienst) vor, und halte ihn nicht für zu groß,"
        }
      ]
    },
    {
      "id": 5502,
      "verse_number": 7,
      "verse_key": "74:7",
      "hizb_number": 58,
      "rub_el_hizb_number": 230,
      "ruku_number": 512,
      "manzil_number": 7,
      "sajdah_number": null,
      "text_uthmani": "وَلِرَبِّكَ فَٱصْبِرْ",
      "page_number": 575,
      "juz_number": 29,
      "words": [
        {
          "id": 7947,
          "position": 1,
          "audio_url": "wbw/074_007_001.mp3",
          "char_type_name": "word",
          "code_v1": "ﯠ",
          "page_number": 575,
          "line_number": 11,
          "text": "ﯠ",
          "translation": {
            "text": "And for your Lord",
            "language_name": "english"
          },
          "transliteration": {
            "text": "walirabbika",
            "language_name": "english"
          }
        },
        {
          "id": 7948,
          "position": 2,
          "audio_url": "wbw/074_007_002.mp3",
          "char_type_name": "word",
          "code_v1": "ﯡ",
          "page_number": 575,
          "line_number": 11,
          "text": "ﯡ",
          "translation": {
            "text": "be patient",
            "language_name": "english"
          },
          "transliteration": {
            "text": "fa-iṣ'bir",
            "language_name": "english"
          }
        },
        {
          "id": 7949,
          "position": 3,
          "audio_url": null,
          "char_type_name": "end",
          "code_v1": "ﯢ",
          "page_number": 575,
          "line_number": 11,
          "text": "ﯢ",
          "translation": {
            "text": "(7)",
            "language_name": "english"
          },
          "transliteration": {
            "text": null,
            "language_name": "english"
          }
        }
      ],
      "translations": [
        {
          "id": 95308,
          "resource_id": 19,
          "text": "For the sake of thy Lord, be patient!"
        },
        {
          "id": 369789,
          "resource_id": 79,
          "text": "И ради Господа своего [ради довольства Аллаха] будь терпелив (в исполнении Его повелений и отстранении от того, что Он запретил)!"
        },
        {
          "id": 255629,
          "resource_id": 45,
          "text": "Ради Господа твоего будь терпелив!"
        },
        {
          "id": 144440,
          "resource_id": 27,
          "text": "und ertrage standhaft (alles) für deinen Herrn."
        }
      ]
    },
    {
      "id": 5503,
      "verse_number": 8,
      "verse_key": "74:8",
      "hizb_number": 58,
      "rub_el_hizb_number": 230,
      "ruku_number": 512,
      "manzil_number": 7,
      "sajdah_number": null,
      "text_uthmani": "فَإِذَا نُقِرَ فِى ٱلنَّاقُورِ",
      "page_number": 575,
      "juz_number": 29,
      "words": [
        {
          "id": 9113,
          "position": 1,
          "audio_url": "wbw/074_008_001.mp3",
          "char_type_name": "word",
          "code_v1": "ﯣ",
          "page_number": 575,
          "line_number": 12,
          "text": "ﯣ",
          "translation": {
            "text": "Then when",
            "language_name": "english"
          },
          "transliteration": {
            "text": "fa-idhā",
            "language_name": "english"
          }
        },
        {
          "id": 9114,
          "position": 2,
          "audio_url": "wbw/074_008_002.mp3",
          "char_type_name": "word",
          "code_v1": "ﯤ",
          "page_number": 575,
          "line_number": 12,
          "text": "ﯤ",
          "translation": {
            "text": "is blown",
            "language_name": "english"
          },
          "transliteration": {
            "text": "nuqira",
            "language_name": "english"
          }
        },
        {
          "id": 9115,
          "position": 3,
          "audio_url": "wbw/074_008_003.mp3",
          "char_type_name": "word",
          "code_v1": "ﯥ",
          "page_number": 575,
          "line_number": 12,
          "text": "ﯥ",
          "translation": {
            "text": "in",
            "language_name": "english"
          },
          "transliteration": {
            "text": "fī",
            "language_name": "english"
          }
        },
        {
          "id": 9116,
          "position": 4,
          "audio_url": "wbw/074_008_004.mp3",
          "char_type_name": "word",
          "code_v1": "ﯦ",
          "page_number": 575,
          "line_number": 12,
          "text": "ﯦ",
          "translation": {
            "text": "the trumpet",
            "language_name": "english"
          },
          "transliteration": {
            "text": "l-nāqūri",
            "language_name": "english"
          }
        },
        {
          "id": 9117,
          "position": 5,
          "audio_url": null,
          "char_type_name": "end",
          "code_v1": "ﯧ",
          "page_number": 575,
          "line_number": 12,
          "text": "ﯧ",
          "translation": {
            "text": "(8)",
            "language_name": "english"
          },
          "transliteration": {
            "text": null,
            "language_name": "english"
          }
        }
      ],
      "translations": [
        {
          "id": 95310,
          "resource_id": 19,
          "text": "For when the trumpet shall sound,"
        },
        {
          "id": 369790,
          "resource_id": 79,
          "text": "А когда будет дунуто в Рог (на воскрешение умерших),"
        },
        {
          "id": 255633,
          "resource_id": 45,
          "text": "Когда же протрубят в рог,"
        },
        {
          "id": 144442,
          "resource_id": 27,
          "text": "Wenn dann ins Horn gestoßen wird,"
        }
      ]
    },
    {
      "id": 5504,
      "verse_number": 9,
      "verse_key": "74:9",
      "hizb_number": 58,
      "rub_el_hizb_number": 230,
      "ruku_number": 512,
      "manzil_number": 7,
      "sajdah_number": null,
      "text_uthmani": "فَذَٰلِكَ يَوْمَئِذٍ يَوْمٌ عَسِيرٌ",
      "page_number": 575,
      "juz_number": 29,
      "words": [
        {
          "id": 10338,
          "position": 1,
          "audio_url": "wbw/074_009_001.mp3",
          "char_type_name": "word",
          "code_v1": "ﯨ",
          "page_number": 575,
          "line_number": 12,
          "text": "ﯨ",
          "translation": {
            "text": "That",
            "language_name": "english"
          },
          "transliteration": {
            "text": "fadhālika",
            "language_name": "english"
          }
        },
        {
          "id": 10339,
          "position": 2,
          "audio_url": "wbw/074_009_002.mp3",
          "char_type_name": "word",
          "code_v1": "ﯩ",
          "page_number": 575,
          "line_number": 12,
          "text": "ﯩ",
          "translation": {
            "text": "Day",
            "language_name": "english"
          },
          "transliteration": {
            "text": "yawma-idhin",
            "language_name": "english"
          }
        },
        {
          "id": 10340,
          "position": 3,
          "audio_url": "wbw/074_009_003.mp3",
          "char_type_name": "word",
          "code_v1": "ﯪ",
          "page_number": 575,
          "line_number": 12,
          "text": "ﯪ",
          "translation": {
            "text": "(will be) a Day",
            "language_name": "english"
          },
          "transliteration": {
            "text": "yawmun",
            "language_name": "english"
          }
        },
        {
          "id": 10341,
          "position": 4,
          "audio_url": "wbw/074_009_004.mp3",
          "char_type_name": "word",
          "code_v1": "ﯫ",
          "page_number": 575,
          "line_number": 12,
          "text": "ﯫ",
          "translation": {
            "text": "difficult",
            "language_name": "english"
          },
          "transliteration": {
            "text": "ʿasīrun",
            "language_name": "english"
          }
        },
        {
          "id": 10342,
          "position": 5,
          "audio_url": null,
          "char_type_name": "end",
          "code_v1": "ﯬ",
          "page_number": 575,
          "line_number": 12,
          "text": "ﯬ",
          "translation": {
            "text": "(9)",
            "language_name": "english"
          },
          "transliteration": {
            "text": null,
            "language_name": "english"
          }
        }
      ],
      "translations": [
        {
          "id": 95312,
          "resource_id": 19,
          "text": "Surely that day will be a day of anguish,"
        },
        {
          "id": 369791,
          "resource_id": 79,
          "text": "тот день будет тяжелым днем [трудным и страшным],"
        },
        {
          "id": 255636,
          "resource_id": 45,
          "text": "то день тот будет Днем тяжким,"
        },
        {
          "id": 144444,
          "resource_id": 27,
          "text": "so wird jener Tag ein schwerer Tag sein"
        }
      ]
    },
    {
      "id": 5505,
      "verse_number": 10,
      "verse_key": "74:10",
      "hizb_number": 58,
      "rub_el_hizb_number": 230,
      "ruku_number": 512,
      "manzil_number": 7,
      "sajdah_number": null,
      "text_uthmani": "عَلَى ٱلْكَـٰفِرِينَ غَيْرُ يَسِيرٍ",
      "page_number": 575,
      "juz_number": 29,
      "words": [
        {
          "id": 11570,
          "position": 1,
          "audio_url": "wbw/074_010_001.mp3",
          "char_type_name": "word",
          "code_v1": "ﯭ",
          "page_number": 575,
          "line_number": 12,
          "text": "ﯭ",
          "translation": {
            "text": "For",
            "language_name": "english"
          },
          "transliteration": {
            "text": "ʿalā",
            "language_name": "english"
          }
        },
        {
          "id": 11571,
          "position": 2,
          "audio_url": "wbw/074_010_002.mp3",
          "char_type_name": "word",
          "code_v1": "ﯮ",
          "page_number": 575,
          "line_number": 12,
          "text": "ﯮ",
          "translation": {
            "text": "the disbelievers ",
            "language_name": "english"
          },
          "transliteration": {
            "text": "l-kāfirīna",
            "language_name": "english"
          }
        },
        {
          "id": 11572,
          "position": 3,
          "audio_url": "wbw/074_010_003.mp3",
          "char_type_name": "word",
          "code_v1": "ﯯ",
          "page_number": 575,
          "line_number": 13,
          "text": "ﯯ",
          "translation": {
            "text": "not",
            "language_name": "english"
          },
          "transliteration": {
            "text": "ghayru",
            "language_name": "english"
          }
        },
        {
          "id": 11573,
          "position": 4,
          "audio_url": "wbw/074_010_004.mp3",
          "char_type_name": "word",
          "code_v1": "ﯰ",
          "page_number": 575,
          "line_number": 13,
          "text": "ﯰ",
          "translation": {
            "text": "easy",
            "language_name": "english"
          },
          "transliteration": {
            "text": "yasīrin",
            "language_name": "english"
          }
        },
        {
          "id": 11574,
          "position": 5,
          "audio_url": null,
          "char_type_name": "end",
          "code_v1": "ﯱ",
          "page_number": 575,
          "line_number": 13,
          "text": "ﯱ",
          "translation": {
            "text": "(10)",
            "language_name": "english"
          },
          "transliteration": {
            "text": null,
            "language_name": "english"
          }
        }
      ],
      "translations": [
        {
          "id": 95252,
          "resource_id": 19,
          "text": "Not of ease, for disbelievers."
        },
        {
          "id": 369792,
          "resource_id": 79,
          "text": "который для неверующих не будет легок."
        },
        {
          "id": 255581,
          "resource_id": 45,
          "text": "нелегким для неверующих."
        },
        {
          "id": 144393,
          "resource_id": 27,
          "text": "für die Ungläubigen nicht leicht."
        }
      ]
    }
  ],
  "pagination": {
    "per_page": 10,
    "current_page": 1,
    "next_page": 2,
    "total_pages": 6,
    "total_records": 56
  }
}