{
  "verses": [
    {
      "id": 5623,
      "verse_number": 1,
      "verse_key": "77:1",
      "hizb_number": 58,
      "rub_el_hizb_number": 232,
      "ruku_number": 518,
      "manzil_number": 7,
      "sajdah_number": null,
      "text_uthmani": " وَٱلْمُرْسَلَـٰتِ عُرْفًا",
      "page_number": 580,
      "juz_number": 29,
      "words": [
        {
          "id": 673,
          "position": 1,
          "audio_url": "wbw/077_001_001.mp3",
          "char_type_name": "word",
          "code_v1": "ﮑ",
          "page_number": 580,
          "line_number": 9,
          "text": "ﮑ",
          "translation": {
            "text": "By the ones sent forth",
            "language_name": "english"
          },
          "transliteration": {
            "text": "wal-mur'salāti",
            "language_name": "english"
          }
        },
        {
          "id": 674,
          "position": 2,
          "audio_url": "wbw/077_001_002.mp3",
          "char_type_name": "word",
          "code_v1": "ﮒ",
          "page_number": 580,
          "line_number": 9,
          "text": "ﮒ",
          "translation": {
            "text": "one after another",
            "language_name": "english"
          },
          "transliteration": {
            "text": "ʿur'fan",
            "language_name": "english"
          }
        },
        {
          "id": 675,
          "position": 3,
          "audio_url": null,
          "char_type_name": "end",
          "code_v1": "ﮓ",
          "page_number": 580,
          "line_number": 9,
          "text": "ﮓ",
          "translation": {
            "text": "(1)",
            "language_name": "english"
          },
          "transliteration": {
            "text": null,
            "language_name": "english"
          }
        }
      ],
      "translations": [
        {
          "id": 95407,
          "resource_id": 19,
          "text": "By the emissary winds, (sent) one after another"
        },
        {
          "id": 369910,
          "resource_id": 79,
          "text": "(Я) [Аллах] клянусь (ветрами благими) посылаемыми поочередно [которые веют одни за другим],"
        },
        {
          "id": 252194,
          "resource_id": 45,
          "text": "Клянусь посылаемыми с добром,"
        },
        {
          "id": 144635,
          "resource_id": 27,
          "text": "Bei den Entsandten, die wie eine Mähne aufeinanderfolgen,"
        }
      ]
    },
    {
      "id": 5624,
      "verse_number": 2,
      "verse_key": "77:2",
      "hizb_number": 58,
      "rub_el_hizb_number": 232,
      "ruku_number": 518,
      "manzil_number": 7,
      "sajdah_number": null,
      "text_uthmani": "فَٱلْعَـٰصِفَـٰتِ عَصْفًا",
      "page_number": 580,
      "juz_number": 29,
      "words": [
        {
          "id": 1659,
          "position": 1,
          "audio_url": "wbw/077_002_001.mp3",
          "char_type_name": "word",
          "code_v1": "ﮔ",
          "page_number": 580,
          "line_number": 9,
          "text": "ﮔ",
          "translation": {
            "text": "And the winds that blow",
            "language_name": "english"
          },
          "transliteration": {
            "text": "fal-ʿāṣifāti",
            "language_name": "english"
          }
        },
        {
          "id": 1660,
          "position": 2,
          "audio_url": "wbw/077_002_002.mp3",
          "char_type_name": "word",
          "code_v1": "ﮕ",
          "page_number": 580,
          "line_number": 9,
          "text": "ﮕ",
          "translation": {
            "text": "violently",
            "language_name": "english"
          },
          "transliteration": {
            "text": "ʿaṣfan",
            "language_name": "english"
          }
        },
        {
          "id": 1661,
          "position": 3,
          "audio_url": null,
          "char_type_name": "end",
          "code_v1": "ﮖ",
          "page_number": 580,
          "line_number": 9,
          "text": "ﮖ",
          "translation": {
            "text": "(2)",
            "language_name": "english"
          },
          "transliteration": {
            "text": null,
            "language_name": "english"
          }
        }
      ],
      "translations": [
        {
          "id": 95415,
          "resource_id": 19,
          "text": "By the raging hurricanes,"
        },
        {
          "id": 369911,
          "resource_id": 79,
          "text": "и (ветрами же разрушительными) бушующими сильно,"
        },
        {
          "id": 255737,
          "resource_id": 45,
          "text": "несущимися быстро,"
        },
        {
          "id": 144552,
          "resource_id": 27,
          "text": "den einen Sturm Entfesselnden"
        }
      ]
    },
    {
      "id": 5625,
      "verse_number": 3,
      "verse_key": "77:3",
      "hizb_number": 58,
      "rub_el_hizb_number": 232,
      "ruku_number": 518,
      "manzil_number": 7,
      "sajdah_number": null,
      "text_uthmani": "وَٱلنَّـٰشِرَٰتِ نَشْرًا",
      "page_number": 580,
      "juz_number": 29,
      "words": [
        {
          "id": 2790,
          "position": 1,
          "audio_url": "wbw/077_003_001.mp3",
          "char_type_name": "word",
          "code_v1": "ﮗ",
          "page_number": 580,
          "line_number": 9,
          "text": "ﮗ",
          "translation": {
            "text": "And the ones that scatter",
            "language_name": "english"
          },
          "transliteration": {
            "text": "wal-nāshirāti",
            "language_name": "english"
          }
        },
        {
          "id": 2791,
          "position": 2,
          "audio_url": "wbw/077_003_002.mp3",
          "char_type_name": "word",
          "code_v1": "ﮘ",
          "page_number": 580,
          "line_number": 9,
          "text": "ﮘ",
          "translation": {
            "text": "far and wide",
            "language_name": "english"
          },
          "transliteration": {
            "text": "nashran",
            "language_name": "english"
          }
        },
        {
          "id": 2792,
          "position": 3,
          "audio_url": null,
          "char_type_name": "end",
          "code_v1": "ﮙ",
          "page_number": 580,
          "line_number": 9,
          "text": "ﮙ",
          "translation": {
            "text": "(3)",
            "language_name": "english"
          },
          "transliteration": {
            "text": null,
            "language_name": "english"
          }
        }
      ],
      "translations": [
        {
          "id": 95427,
          "resource_id": 19,
          "text": "By those which cause earth's vegetation to revive;"
        },
        {
          "id": 369912,
          "resource_id": 79,
          "text": "и (ветрами) распространяющими (облака) гоня их (куда пожелает Аллах),"
        },
        {
          "id": 255755,
          "resource_id": 45,
          "text": "распространяющими бурно,"
        },
        {
          "id": 144576,
          "resource_id": 27,
          "text": "und den alles Ausbreitenden,"
        }
      ]
    },
    {
      "id": 5626,
      "verse_number": 4,
      "verse_key": "77:4",
      "hizb_number": 58,
      "rub_el_hizb_number": 232,
      "ruku_number": 518,
      "manzil_number": 7,
      "sajdah_number": null,
      "text_uthmani": "فَٱلْفَـٰرِقَـٰتِ فَرْقًا",
      "page_number": 580,
      "juz_number": 29,
      "words": [
        {
          "id": 4142,
          "position": 1,
          "audio_url": "wbw/077_004_001.mp3",
          "char_type_name": "word",
          "code_v1": "ﮚ",
          "page_number": 580,
          "line_number": 10,
          "text": "ﮚ",
          "translation": {
            "text": "And those who separate",
            "language_name": "english"
          },
          "transliteration": {
            "text": "fal-fāriqāti",
            "language_name": "english"
          }
        },
        {
          "id": 4143,
          "position": 2,
          "audio_url": "wbw/077_004_002.mp3",
          "char_type_name": "word",
          "code_v1": "ﮛ",
          "page_number": 580,
          "line_number": 10,
          "text": "ﮛ",
          "translation": {
            "text": "(by the) Criterion",
            "language_name": "english"
          },
          "transliteration": {
            "text": "farqan",
            "language_name": "english"
          }
        },
        {
          "id": 4144,
          "position": 3,
          "audio_url": null,
          "char_type_name": "end",
          "code_v1": "ﮜ",
          "page_number": 580,
          "line_number": 10,
          "text": "ﮜ",
          "translation": {
            "text": "(4)",
            "language_name": "english"
          },
          "transliteration": {
            "text": null,
            "language_name": "english"
          }
        }
      ],
      "translations": [
        {
          "id": 95439,
          "resource_id": 19,
          "text": "By those who winnow with a winnowing,"
        },
        {
          "id": 369913,
          "resource_id": 79,
          "text": "и (ангелами) (нисходящими от Аллаха для того, чтобы) различать (истину от лжи и правильный путь от заблуждения) твердо,"
        },
        {
          "id": 252119,
          "resource_id": 45,
          "text": "различающими твердо,"
        },
        {
          "id": 144580,
          "resource_id": 27,
          "text": "den klar Trennenden,"
        }
      ]
    },
    {
      "id": 5627,
      "verse_number": 5,
      "verse_key": "77:5",
      "hizb_number": 58,
      "rub_el_hizb_number": 232,
      "ruku_number": 518,
      "manzil_number": 7,
      "sajdah_number": null,
      "text_uthmani": "فَٱلْمُلْقِيَـٰتِ ذِكْرًا",
      "page_number": 580,
      "juz_number": 29,
      "words": [
        {
          "id": 5433,
          "position": 1,
          "audio_url": "wbw/077_005_001.mp3",
          "char_type_name": "word",
          "code_v1": "ﮝ",
          "page_number": 580,
          "line_number": 10,
          "text": "ﮝ",
          "translation": {
            "text": "And those who bring down",
            "language_name": "english"
          },
          "transliteration": {
            "text": "fal-mul'qiyāti",
            "language_name": "english"
          }
        },
        {
          "id": 5434,
          "position": 2,
          "audio_url": "wbw/077_005_002.mp3",
          "char_type_name": "word",
          "code_v1": "ﮞ",
          "page_number": 580,
          "line_number": 10,
          "text": "ﮞ",
          "translation": {
            "text": "(the) Reminder",
            "language_name": "english"
          },
          "transliteration": {
            "text": "dhik'ran",
            "language_name": "english"
          }
        },
        {
          "id": 5435,
          "position": 3,
          "audio_url": null,
          "char_type_name": "end",
          "code_v1": "ﮟ",
          "page_number": 580,
          "line_number": 10,
          "text": "ﮟ",
          "translation": {
            "text": "(5)",
            "language_name": "english"
          },
          "transliteration": {
            "text": null,
            "language_name": "english"
          }
        }
      ],
      "translations": [
        {
          "id": 95451,
          "resource_id": 19,
          "text": "By those who bring down the Reminder,"
        },
        {
          "id": 369914,
          "resource_id": 79,
          "text": "и (ангелами) передающими (пророкам откровение от Аллаха) (чтобы оно служило) напоминанием (Его рабам, о том, что Он повелел им),"
        },
        {
          "id": 255771,
          "resource_id": 45,
          "text": "и передающими Напоминание"
        },
        {
          "id": 144591,
          "resource_id": 27,
          "text": "den Ermahnung Überbringenden"
        }
      ]
    },
    {
      "id": 5628,
      "verse_number": 6,
      "verse_key": "77:6",
      "hizb_number": 58,
      "rub_el_hizb_number": 232,
      "ruku_number": 518,
      "manzil_number": 7,
      "sajdah_number": null,
      "text_uthmani": "عُذْرًا أَوْ نُذْرًا",
      "page_number": 580,
      "juz_number": 29,
      "words": [
        {
          "id": 6648,
          "position": 1,
          "audio_url": "wbw/077_006_001.mp3",
          "char_type_name": "word",
          "code_v1": "ﮠ",
          "page_number": 580,
          "line_number": 10,
          "text": "ﮠ",
          "translation": {
            "text": "(As) justification",
            "language_name": "english"
          },
          "transliteration": {
            "text": "ʿudh'ran",
            "language_name": "english"
          }
        },
        {
          "id": 6649,
          "position": 2,
          "audio_url": "wbw/077_006_002.mp3",
          "char_type_name": "word",
          "code_v1": "ﮡ",
          "page_number": 580,
          "line_number": 10,
          "text": "ﮡ",
          "translation": {
            "text": "or",
            "language_name": "english"
          },
          "transliteration": {
            "text": "aw",
            "language_name": "english"
          }
        },
        {
          "id": 6650,
          "position": 3,
          "audio_url": "wbw/077_006_003.mp3",
          "char_type_name": "word",
          "code_v1": "ﮢ",
          "page_number": 580,
          "line_number": 10,
          "text": "ﮢ",
          "translation": {
            "text": "warning",
            "language_name": "english"
          },
          "transliteration": {
            "text": "nudh'ran",
            "language_name": "english"
          }
        },
        {
          "id": 6651,
          "position": 4,
          "audio_url": null,
          "char_type_name": "end",
          "code_v1": "ﮣ",
          "page_number": 580,
          "line_number": 10,
          "text": "ﮣ",
          "translation": {
            "text": "(6)",
            "language_name": "english"
          },
          "transliteration": {
            "text": null,
            "language_name": "english"
          }
        }
      ],
      "translations": [
        {
          "id": 95454,
          "resource_id": 19,
          "text": "To excuse or to warn,"
        },
        {
          "id": 369915,
          "resource_id": 79,
          "text": "как оправдание или предостережение!"
        },
        {
          "id": 255769,
          "resource_id": 45,
          "text": "для оправдания или предостережения."
        },
        {
          "id": 139843,
          "resource_id": 27,
          "text": "zur Pflichterfüllung oder zur Warnung!"
        }
      ]
    },
    {
      "id": 5629,
      "verse_number": 7,
      "verse_key": "77:7",
      "hizb_number": 58,
      "rub_el_hizb_number": 232,
      "ruku_number": 518,
      "manzil_number": 7,
      "sajdah_number": null,
      "text_uthmani": "إِنَّمَا تُوعَدُونَ لَوَٰقِعٌ",
      "page_number": 580,
      "juz_number": 29,
      "words": [
        {
          "id": 8009,
          "position": 1,
          "audio_url": "wbw/077_007_001.mp3",
          "char_type_name": "word",
          "code_v1": "ﮤ",
          "page_number": 580,
          "line_number": 10,
          "text": "ﮤ",
          "translation": {
            "text": "Indeed, what",
            "language_name": "english"
          },
          "transliteration": {
            "text": "innamā",
            "language_name": "english"
          }
        },
        {
          "id": 8010,
          "position": 2,
          "audio_url": "wbw/077_007_002.mp3",
          "char_type_name": "word",
          "code_v1": "ﮥ",
          "page_number": 580,
          "line_number": 11,
          "text": "ﮥ",
          "translation": {
            "text": "you are promised",
            "language_name": "english"
          },
          "transliteration": {
            "text": "tūʿadūna",
            "language_name": "english"
          }
        },
        {
          "id": 8011,
          "position": 3,
          "audio_url": "wbw/077_007_003.mp3",
          "char_type_name": "word",
          "code_v1": "ﮦ",
          "page_number": 580,
          "line_number": 11,
          "text": "ﮦ",
          "translation": {
            "text": "will surely occur",
            "language_name": "english"
          },
          "transliteration": {
            "text": "lawāqiʿun",
            "language_name": "english"
          }
        },
        {
          "id": 8012,
          "position": 4,
          "audio_url": null,
          "char_type_name": "end",
          "code_v1": "ﮧ",
          "page_number": 580,
          "line_number": 11,
          "text": "ﮧ",
          "translation": {
            "text": "(7)",
            "language_name": "english"
          },
          "transliteration": {
            "text": null,
            "language_name": "english"
          }
        }
      ],
      "translations": [
        {
          "id": 95456,
          "resource_id": 19,
          "text": "Surely that which ye are promised will befall."
        },
        {
          "id": 369916,
          "resource_id": 79,
          "text": "Ведь то, что вам (о, люди) обещано [День Суда], – непременно произойдет."
        },
        {
          "id": 255775,
          "resource_id": 45,
          "text": "Обещанное вам непременно сбудется."
        },
        {
          "id": 144595,
          "resource_id": 27,
          "text": "Gewiß, was euch versprochen wird, wird sicher hereinbrechen."
        }
      ]
    },
    {
      "id": 5630,
      "verse_number": 8,
      "verse_key": "77:8",
      "hizb_number": 58,
      "rub_el_hizb_number": 232,
      "ruku_number": 518,
      "manzil_number": 7,
      "sajdah_number": null,
      "text_uthmani": "فَإِذَا ٱلنُّجُومُ طُمِسَتْ",
      "page_number": 580,
      "juz_number": 29,
      "words": [
        {
          "id": 9169,
          "position": 1,
          "audio_url": "wbw/077_008_001.mp3",
          "char_type_name": "word",
          "code_v1": "ﮨ",
          "page_number": 580,
          "line_number": 11,
          "text": "ﮨ",
          "translation": {
            "text": "So when",
            "language_name": "english"
          },
          "transliteration": {
            "text": "fa-idhā",
            "language_name": "english"
          }
        },
        {
          "id": 9170,
          "position": 2,
          "audio_url": "wbw/077_008_002.mp3",
          "char_type_name": "word",
          "code_v1": "ﮩ",
          "page_number": 580,
          "line_number": 11,
          "text": "ﮩ",
          "translation": {
            "text": "the stars",
            "language_name": "english"
          },
          "transliteration": {
            "text": "l-nujūmu",
            "language_name": "english"
          }
        },
        {
          "id": 9171,
          "position": 3,
          "audio_url": "wbw/077_008_003.mp3",
          "char_type_name": "word",
          "code_v1": "ﮪ",
          "page_number": 580,
          "line_number": 11,
          "text": "ﮪ",
          "translation": {
            "text": "are obliterated",
            "language_name": "english"
          },
          "transliteration": {
            "text": "ṭumisat",
            "language_name": "english"
          }
        },
        {
          "id": 9172,
          "position": 4,
          "audio_url": null,
          "char_type_name": "end",
          "code_v1": "ﮫ",
          "page_number": 580,
          "line_number": 11,
          "text": "ﮫ",
          "translation": {
            "text": "(8)",
            "language_name": "english"
          },
          "transliteration": {
            "text": null,
            "language_name": "english"
          }
        }
      ],
      "translations": [
        {
          "id": 95458,
          "resource_id": 19,
          "text": "So when the stars are put out,"
        },
        {
          "id": 369917,
          "resource_id": 79,
          "text": "И когда звезды померкнут [перестанут светить],"
        },
        {
          "id": 255773,
          "resource_id": 45,
          "text": "Когда погаснут звезды,"
        },
        {
          "id": 144593,
          "resource_id": 27,
          "text": "Wenn dann die Sterne ausgelöscht werden"
        }
      ]
    },
    {
      "id": 5631,
      "verse_number": 9,
      "verse_key": "77:9",
      "hizb_number": 58,
      "rub_el_hizb_number": 232,
      "ruku_number": 518,
      "manzil_number": 7,
      "sajdah_number": null,
      "text_uthmani": "وَإِذَا ٱلسَّمَآءُ فُرِجَتْ",
      "page_number": 580,
      "juz_number": 29,
      "words": [
        {
          "id": 10371,
          "position": 1,
          "audio_url": "wbw/077_009_001.mp3",
          "char_type_name": "word",
          "code_v1": "ﮬ",
          "page_number": 580,
          "line_number": 11,
          "text": "ﮬ",
          "translation": {
            "text": "And when",
            "language_name": "english"
          },
          "transliteration": {
            "text": "wa-idhā",
            "language_name": "english"
          }
        },
        {
          "id": 10372,
          "position": 2,
          "audio_url": "wbw/077_009_002.mp3",
          "char_type_name": "word",
          "code_v1": "ﮭ",
          "page_number": 580,
          "line_number": 11,
          "text": "ﮭ",
          "translation": {
            "text": "the heaven",
            "language_name": "english"
          },
          "transliteration": {
            "text": "l-samāu",
            "language_name": "english"
          }
        },
        {
          "id": 10373,
          "position": 3,
          "audio_url": "wbw/077_009_003.mp3",
          "char_type_name": "word",
          "code_v1": "ﮮ",
          "page_number": 580,
          "line_number": 11,
          "text": "ﮮ",
          "translation": {
            "text": "is cleft asunder",
            "language_name": "english"
          },
          "transliteration": {
            "text": "furijat",
            "language_name": "english"
          }
        },
        {
          "id": 10374,
          "position": 4,
          "audio_url": null,
          "char_type_name": "end",
          "code_v1": "ﮯ",
          "page_number": 580,
          "line_number": 12,
          "text": "ﮯ",
          "translation": {
            "text": "(9)",
            "language_name": "english"
          },
          "transliteration": {
            "text": null,
            "language_name": "english"
          }
        }
      ],
      "translations": [
        {
          "id": 95460,
          "resource_id": 19,
          "text": "And when the sky is riven asunder,"
        },
        {
          "id": 369918,
          "resource_id": 79,
          "text": "и когда небо [Вселенная] расколется,"
        },
        {
          "id": 255778,
          "resource_id": 45,
          "text": "когда расколется небо,"
        },
        {
          "id": 144597,
          "resource_id": 27,
          "text": "und wenn der Himmel gespalten wird"
        }
      ]
    },
    {
      "id": 5632,
      "verse_number": 10,
      "verse_key": "77:10",
      "hizb_number": 58,
      "rub_el_hizb_number": 232,
      "ruku_number": 518,
      "manzil_number": 7,
      "sajdah_number": null,
      "text_uthmani": "وَإِذَا ٱلْجِبَالُ نُسِفَتْ",
      "page_number": 580,
      "juz_number": 29,
      "words": [
        {
          "id": 11609,
          "position": 1,
          "audio_url": "wbw/077_010_001.mp3",
          "char_type_name": "word",
          "code_v1": "ﮰ",
          "page_number": 580,
          "line_number": 12,
          "text": "ﮰ",
          "translation": {
            "text": "And when",
            "language_name": "english"
          },
          "transliteration": {
            "text": "wa-idhā",
            "language_name": "english"
          }
        },
        {
          "id": 11610,
          "position": 2,
          "audio_url": "wbw/077_010_002.mp3",
          "char_type_name": "word",
          "code_v1": "ﮱ",
          "page_number": 580,
          "line_number": 12,
          "text": "ﮱ",
          "translation": {
            "text": "the mountains",
            "language_name": "english"
          },
          "transliteration": {
            "text": "l-jibālu",
            "language_name": "english"
          }
        },
        {
          "id": 11611,
          "position": 3,
          "audio_url": "wbw/077_010_003.mp3",
          "char_type_name": "word",
          "code_v1": "ﯓ",
          "page_number": 580,
          "line_number": 12,
          "text": "ﯓ",
          "translation": {
            "text": "are blown away",
            "language_name": "english"
          },
          "transliteration": {
            "text": "nusifat",
            "language_name": "english"
          }
        },
        {
          "id": 11612,
          "position": 4,
          "audio_url": null,
          "char_type_name": "end",
          "code_v1": "ﯔ",
          "page_number": 580,
          "line_number": 12,
          "text": "ﯔ",
          "translation": {
            "text": "(10)",
            "language_name": "english"
          },
          "transliteration": {
            "text": null,
            "language_name": "english"
          }
        }
      ],
      "translations": [
        {
          "id": 95408,
          "resource_id": 19,
          "text": "And when the mountains are blown away,"
        },
        {
          "id": 369919,
          "resource_id": 79,
          "text": "и когда горы развеются (в пыль),"
        },
        {
          "id": 255724,
          "resource_id": 45,
          "text": "когда развеются горы,"
        },
        {
          "id": 144561,
          "resource_id": 27,
          "text": "und wenn die Berge zersprengt werden"
        }
      ]
    }
  ],
  "pagination": {
    "per_page": 10,
    "current_page": 1,
    "next_page": 2,
    "total_pages": 5,
    "total_records": 50
  }
}